…
``` r
count(dados[is.na(dados$mass),])
```

    ## # A tibble: 1 × 1
    ##       n
    ##   <int>
    ## 1    28

``` r
dados[is.na(dados$mass),]
```

    ## # A tibble: 28 × 14
    ##    name     height  mass hair_color skin_color eye_color birth_year sex   gender
    ##    <chr>     <int> <dbl> <chr>      <chr>      <chr>          <dbl> <chr> <chr> 
    ##  1 Wilhuff…    180    NA auburn, g… fair       blue              64 male  mascu…
    ##  2 Mon Mot…    150    NA auburn     fair       blue              48 fema… femin…
    ##  3 Arvel C…     NA    NA brown      fair       brown             NA male  mascu…
    ##  4 Finis V…    170    NA blond      fair       blue              91 male  mascu…
    ##  5 Rugor N…    206    NA none       green      orange            NA male  mascu…
    ##  6 Ric Olié    183    NA brown      fair       blue              NA male  mascu…
    ##  7 Watto       137    NA black      blue, grey yellow            NA male  mascu…
    ##  8 Quarsh …    183    NA black      dark       brown             62 male  mascu…
    ##  9 Shmi Sk…    163    NA black      fair       brown             72 fema… femin…
    ## 10 Bib For…    180    NA none       pale       pink              NA male  mascu…
    ## # ℹ 18 more rows
    ## # ℹ 5 more variables: homeworld <chr>, species <chr>, films <list>,
    ## #   vehicles <list>, starships <list>

``` r
rownames(dados)[is.na(dados$mass)]
```

    ##  [1] "12" "27" "28" "33" "37" "38" "39" "41" "42" "44" "48" "53" "55" "56" "58"
    ## [16] "60" "61" "65" "67" "72" "73" "74" "76" "83" "84" "85" "86" "87"

``` r
dados %>%
  filter(is.na(mass)) %>%
  select(name)
```

    ## # A tibble: 28 × 1
    ##    name          
    ##    <chr>         
    ##  1 Wilhuff Tarkin
    ##  2 Mon Mothma    
    ##  3 Arvel Crynyd  
    ##  4 Finis Valorum 
    ##  5 Rugor Nass    
    ##  6 Ric Olié      
    ##  7 Watto         
    ##  8 Quarsh Panaka 
    ##  9 Shmi Skywalker
    ## 10 Bib Fortuna   
    ## # ℹ 18 more rows
…
O ideal seria usar um modelo de regressão para prever os valores, mas,
por limitação técnica, não será possível. No entanto, a utilização da
mediana não é indevida: tem embasamento e procedência, principalmente
com os cuidados em relação aos fatores citados.

Assim, é preciso verificar a espécie e o gênero de cada observação:

``` r
dados %>% 
  filter(is.na(mass)) %>% 
  select(name, species, gender) %>% 
  arrange(desc(species), group_by = T)
```

    ## # A tibble: 28 × 3
    ##    name           species   gender   
    ##    <chr>          <chr>     <chr>    
    ##  1 Eeth Koth      Zabrak    masculine
    ##  2 Gasgano        Xexto     masculine
    ##  3 Bib Fortuna    Twi'lek   masculine
    ##  4 Watto          Toydarian masculine
    ##  5 Yarael Poof    Quermian  masculine
    ##  6 San Hill       Muun      masculine
    ##  7 Taun We        Kaminoan  feminine 
    ##  8 Saesee Tiin    Iktotchi  masculine
    ##  9 Wilhuff Tarkin Human     masculine
    ## 10 Mon Mothma     Human     feminine 
    ## # ℹ 18 more rows
…
